Tutorial: R básico + dplyr
…
---

# União completa das duas bases

```r
dplyr::full_join(df, da, by = "name")
```

```
## # A tibble: 55 x 3
##    name                  height  mass
##    <chr>                  <int> <dbl>
##  1 R2-D2                     96    32
##  2 Leia Organa              150    49
##  3 R5-D4                     97    32
##  4 Yoda                      66    17
##  5 Mon Mothma               150    NA
##  6 Wicket Systri Warrick     88    20
##  7 Nien Nunb                160    68
##  8 Watto                    137    NA
##  9 Sebulba                  112    40
## 10 Shmi Skywalker           163    NA
## # ... with 45 more rows
```
…
